<?xml version="1.0" encoding="UTF-8" standalone="no"?>
<!DOCTYPE svg PUBLIC "-//W3C//DTD SVG 1.1//EN"
 "http://www.w3.org/Graphics/SVG/1.1/DTD/svg11.dtd">
<!-- Generated by graphviz version 2.36.0 (20140111.2315)
 -->
<!-- Title: Revert.h Pages: 1 -->
<svg width="136pt" height="140pt"
 viewBox="0.00 0.00 136.00 140.00" xmlns="http://www.w3.org/2000/svg" xmlns:xlink="http://www.w3.org/1999/xlink">
<g id="graph0" class="graph" transform="scale(1 1) rotate(0) translate(4 136)">
<title>Revert.h</title>
<!-- Node1 -->
<g id="node1" class="node"><title>Node1</title>
<polygon fill="#bfbfbf" stroke="black" points="60,-112.5 60,-131.5 114,-131.5 114,-112.5 60,-112.5"/>
<text text-anchor="middle" x="87" y="-119.5" font-family="Helvetica,sans-Serif" font-size="10.00">Revert.h</text>
</g>
<!-- Node2 -->
<g id="node2" class="node"><title>Node2</title>
<g id="a_node2"><a xlink:href="Combine_8h.html" target="_top" xlink:title="Lookup/Combine.h">
<polygon fill="none" stroke="black" points="0,-56.5 0,-75.5 98,-75.5 98,-56.5 0,-56.5"/>
<text text-anchor="middle" x="49" y="-63.5" font-family="Helvetica,sans-Serif" font-size="10.00">Lookup/Combine.h</text>
</a>
</g>
</g>
<!-- Node1&#45;&gt;Node2 -->
<g id="edge1" class="edge"><title>Node1&#45;&gt;Node2</title>
<path fill="none" stroke="midnightblue" d="M80.7251,-112.083C75.3575,-104.455 67.4824,-93.2645 60.9213,-83.9408"/>
<polygon fill="midnightblue" stroke="midnightblue" points="63.7755,-81.9149 55.1582,-75.7511 58.0508,-85.9434 63.7755,-81.9149"/>
</g>
<!-- Node3 -->
<g id="node3" class="node"><title>Node3</title>
<g id="a_node3"><a xlink:href="Pack_8h.html" target="_top" xlink:title="Lookup/Pack.h">
<polygon fill="none" stroke="black" points="46,-0.5 46,-19.5 128,-19.5 128,-0.5 46,-0.5"/>
<text text-anchor="middle" x="87" y="-7.5" font-family="Helvetica,sans-Serif" font-size="10.00">Lookup/Pack.h</text>
</a>
</g>
</g>
<!-- Node1&#45;&gt;Node3 -->
<g id="edge3" class="edge"><title>Node1&#45;&gt;Node3</title>
<path fill="none" stroke="midnightblue" d="M91.8759,-112.372C96.5588,-103.552 103.308,-89.2987 106,-76 109.277,-59.8154 103.239,-41.8242 97.1206,-28.8806"/>
<polygon fill="midnightblue" stroke="midnightblue" points="100.08,-26.9837 92.3732,-19.7132 93.8638,-30.2026 100.08,-26.9837"/>
</g>
<!-- Node2&#45;&gt;Node3 -->
<g id="edge2" class="edge"><title>Node2&#45;&gt;Node3</title>
<path fill="none" stroke="midnightblue" d="M55.2749,-56.083C60.6425,-48.4554 68.5176,-37.2645 75.0787,-27.9408"/>
<polygon fill="midnightblue" stroke="midnightblue" points="77.9492,-29.9434 80.8418,-19.7511 72.2245,-25.9149 77.9492,-29.9434"/>
</g>
</g>
</svg>
