<?xml version="1.0" encoding="UTF-8" standalone="no"?>
<!DOCTYPE svg PUBLIC "-//W3C//DTD SVG 1.1//EN"
 "http://www.w3.org/Graphics/SVG/1.1/DTD/svg11.dtd">
<!-- Generated by graphviz version 2.36.0 (20140111.2315)
 -->
<!-- Title: BaseArray.cpp Pages: 1 -->
<svg width="189pt" height="140pt"
 viewBox="0.00 0.00 189.00 140.00" xmlns="http://www.w3.org/2000/svg" xmlns:xlink="http://www.w3.org/1999/xlink">
<g id="graph0" class="graph" transform="scale(1 1) rotate(0) translate(4 136)">
<title>BaseArray.cpp</title>
<!-- Node1 -->
<g id="node1" class="node"><title>Node1</title>
<polygon fill="#bfbfbf" stroke="black" points="63.5,-112.5 63.5,-131.5 144.5,-131.5 144.5,-112.5 63.5,-112.5"/>
<text text-anchor="middle" x="104" y="-119.5" font-family="Helvetica,sans-Serif" font-size="10.00">BaseArray.cpp</text>
</g>
<!-- Node2 -->
<g id="node2" class="node"><title>Node2</title>
<g id="a_node2"><a xlink:href="BaseArray_8h.html" target="_top" xlink:title="Memory/BaseArray.h">
<polygon fill="none" stroke="black" points="-0.5,-56.5 -0.5,-75.5 108.5,-75.5 108.5,-56.5 -0.5,-56.5"/>
<text text-anchor="middle" x="54" y="-63.5" font-family="Helvetica,sans-Serif" font-size="10.00">Memory/BaseArray.h</text>
</a>
</g>
</g>
<!-- Node1&#45;&gt;Node2 -->
<g id="edge1" class="edge"><title>Node1&#45;&gt;Node2</title>
<path fill="none" stroke="midnightblue" d="M95.7435,-112.083C88.5353,-104.298 77.8902,-92.8015 69.1542,-83.3665"/>
<polygon fill="midnightblue" stroke="midnightblue" points="71.4651,-80.7108 62.1028,-75.7511 66.3288,-85.4666 71.4651,-80.7108"/>
</g>
<!-- Node4 -->
<g id="node4" class="node"><title>Node4</title>
<polygon fill="none" stroke="#bfbfbf" points="127,-56.5 127,-75.5 181,-75.5 181,-56.5 127,-56.5"/>
<text text-anchor="middle" x="154" y="-63.5" font-family="Helvetica,sans-Serif" font-size="10.00">iostream</text>
</g>
<!-- Node1&#45;&gt;Node4 -->
<g id="edge3" class="edge"><title>Node1&#45;&gt;Node4</title>
<path fill="none" stroke="midnightblue" d="M112.256,-112.083C119.465,-104.298 130.11,-92.8015 138.846,-83.3665"/>
<polygon fill="midnightblue" stroke="midnightblue" points="141.671,-85.4666 145.897,-75.7511 136.535,-80.7108 141.671,-85.4666"/>
</g>
<!-- Node3 -->
<g id="node3" class="node"><title>Node3</title>
<polygon fill="none" stroke="#bfbfbf" points="31.5,-0.5 31.5,-19.5 76.5,-19.5 76.5,-0.5 31.5,-0.5"/>
<text text-anchor="middle" x="54" y="-7.5" font-family="Helvetica,sans-Serif" font-size="10.00">iosfwd</text>
</g>
<!-- Node2&#45;&gt;Node3 -->
<g id="edge2" class="edge"><title>Node2&#45;&gt;Node3</title>
<path fill="none" stroke="midnightblue" d="M54,-56.083C54,-49.0059 54,-38.8611 54,-29.9865"/>
<polygon fill="midnightblue" stroke="midnightblue" points="57.5001,-29.751 54,-19.7511 50.5001,-29.7511 57.5001,-29.751"/>
</g>
</g>
</svg>
