<?xml version="1.0" encoding="UTF-8" standalone="no"?>
<!DOCTYPE svg PUBLIC "-//W3C//DTD SVG 1.1//EN"
 "http://www.w3.org/Graphics/SVG/1.1/DTD/svg11.dtd">
<!-- Generated by graphviz version 2.36.0 (20140111.2315)
 -->
<!-- Title: git Pages: 1 -->
<svg width="166pt" height="76pt"
 viewBox="0.00 0.00 166.00 76.00" xmlns="http://www.w3.org/2000/svg" xmlns:xlink="http://www.w3.org/1999/xlink">
<g id="graph0" class="graph" transform="scale(1 1) rotate(0) translate(4 72)">
<title>git</title>
<g id="clust1" class="cluster"><title>clusterdir_9bec7083027963d9f9ceae2cc7474de5</title>
<g id="a_clust1"><a xlink:href="dir_9bec7083027963d9f9ceae2cc7474de5.html" target="_top">
<polygon fill="#eeeeff" stroke="black" points="8,-8 8,-60 150,-60 150,-8 8,-8"/>
</a>
</g>
</g>
<!-- dir_9bec7083027963d9f9ceae2cc7474de5 -->
<g id="node1" class="node"><title>dir_9bec7083027963d9f9ceae2cc7474de5</title>
<text text-anchor="middle" x="115" y="-31.5" font-family="Helvetica,sans-Serif" font-size="10.00">git</text>
</g>
<!-- dir_7bb57b3db9333d53225932f60384c5be -->
<g id="node2" class="node"><title>dir_7bb57b3db9333d53225932f60384c5be</title>
<g id="a_node2"><a xlink:href="dir_7bb57b3db9333d53225932f60384c5be.html" target="_top" xlink:title="graphics">
<polygon fill="white" stroke="red" points="70,-52 16,-52 16,-16 70,-16 70,-52"/>
<text text-anchor="middle" x="43" y="-31.5" font-family="Helvetica,sans-Serif" font-size="10.00">graphics</text>
</a>
</g>
</g>
</g>
</svg>
