<?xml version="1.0" encoding="UTF-8" standalone="no"?>
<!DOCTYPE svg PUBLIC "-//W3C//DTD SVG 1.1//EN"
 "http://www.w3.org/Graphics/SVG/1.1/DTD/svg11.dtd">
<!-- Generated by graphviz version 2.36.0 (20140111.2315)
 -->
<!-- Title: test Pages: 1 -->
<svg width="254pt" height="159pt"
 viewBox="0.00 0.00 254.00 159.00" xmlns="http://www.w3.org/2000/svg" xmlns:xlink="http://www.w3.org/1999/xlink">
<g id="graph0" class="graph" transform="scale(1 1) rotate(0) translate(4 155)">
<title>test</title>
<g id="clust1" class="cluster"><title>clusterdir_6c3597b49167cbcf2f4aa8ff92138914</title>
<g id="a_clust1"><a xlink:href="dir_6c3597b49167cbcf2f4aa8ff92138914.html" target="_top" xlink:title="Profile">
<polygon fill="#ddddee" stroke="black" points="8,-56 8,-143 238,-143 238,-56 8,-56"/>
<text text-anchor="middle" x="123" y="-131" font-family="Helvetica,sans-Serif" font-size="10.00">Profile</text>
</a>
</g>
</g>
<g id="clust2" class="cluster"><title>clusterdir_89c0c8face3f040053acc33b89bbb950</title>
<g id="a_clust2"><a xlink:href="dir_89c0c8face3f040053acc33b89bbb950.html" target="_top">
<polygon fill="#eeeeff" stroke="black" points="16,-64 16,-116 230,-116 230,-64 16,-64"/>
</a>
</g>
</g>
<!-- dir_89c0c8face3f040053acc33b89bbb950 -->
<g id="node1" class="node"><title>dir_89c0c8face3f040053acc33b89bbb950</title>
<text text-anchor="middle" x="195" y="-87.5" font-family="Helvetica,sans-Serif" font-size="10.00">test</text>
</g>
<!-- dir_1384ab108034eab28edc0f794d458d6e -->
<g id="node2" class="node"><title>dir_1384ab108034eab28edc0f794d458d6e</title>
<g id="a_node2"><a xlink:href="dir_1384ab108034eab28edc0f794d458d6e.html" target="_top" xlink:title="include">
<polygon fill="white" stroke="black" points="150,-108 96,-108 96,-72 150,-72 150,-108"/>
<text text-anchor="middle" x="123" y="-87.5" font-family="Helvetica,sans-Serif" font-size="10.00">include</text>
</a>
</g>
</g>
<!-- dir_ea0e0d9544e8e505e830e4dac0906c12 -->
<g id="node3" class="node"><title>dir_ea0e0d9544e8e505e830e4dac0906c12</title>
<g id="a_node3"><a xlink:href="dir_ea0e0d9544e8e505e830e4dac0906c12.html" target="_top" xlink:title="src">
<polygon fill="white" stroke="black" points="78,-108 24,-108 24,-72 78,-72 78,-108"/>
<text text-anchor="middle" x="51" y="-87.5" font-family="Helvetica,sans-Serif" font-size="10.00">src</text>
</a>
</g>
</g>
<!-- dir_ad2ae7cd00bf5910df96983c96c752a9 -->
<g id="node4" class="node"><title>dir_ad2ae7cd00bf5910df96983c96c752a9</title>
<g id="a_node4"><a xlink:href="dir_ad2ae7cd00bf5910df96983c96c752a9.html" target="_top" xlink:title="include">
<polygon fill="none" stroke="red" points="78,-36 24,-36 24,-0 78,-0 78,-36"/>
<text text-anchor="middle" x="51" y="-15.5" font-family="Helvetica,sans-Serif" font-size="10.00">include</text>
</a>
</g>
</g>
<!-- dir_ea0e0d9544e8e505e830e4dac0906c12&#45;&gt;dir_ad2ae7cd00bf5910df96983c96c752a9 -->
<g id="edge1" class="edge"><title>dir_ea0e0d9544e8e505e830e4dac0906c12&#45;&gt;dir_ad2ae7cd00bf5910df96983c96c752a9</title>
<path fill="none" stroke="black" d="M51,-71.6966C51,-63.9827 51,-54.7125 51,-46.1124"/>
<polygon fill="black" stroke="black" points="54.5001,-46.1043 51,-36.1043 47.5001,-46.1044 54.5001,-46.1043"/>
<g id="a_edge1&#45;headlabel"><a xlink:href="dir_000008_000004.html" target="_top" xlink:title="3">
<text text-anchor="middle" x="57.3393" y="-47.199" font-family="Helvetica,sans-Serif" font-size="10.00">3</text>
</a>
</g>
</g>
</g>
</svg>
