<?xml version="1.0" encoding="UTF-8" standalone="no"?>
<!DOCTYPE svg PUBLIC "-//W3C//DTD SVG 1.1//EN"
 "http://www.w3.org/Graphics/SVG/1.1/DTD/svg11.dtd">
<!-- Generated by graphviz version 2.36.0 (20140111.2315)
 -->
<!-- Title: Complex&lt; T &gt; Pages: 1 -->
<svg width="116pt" height="96pt"
 viewBox="0.00 0.00 116.00 96.00" xmlns="http://www.w3.org/2000/svg" xmlns:xlink="http://www.w3.org/1999/xlink">
<g id="graph0" class="graph" transform="scale(1 1) rotate(0) translate(4 92)">
<title>Complex&lt; T &gt;</title>
<!-- Node1 -->
<g id="node1" class="node"><title>Node1</title>
<polygon fill="#bfbfbf" stroke="black" points="14,-0.5 14,-19.5 94,-19.5 94,-0.5 14,-0.5"/>
<text text-anchor="middle" x="54" y="-7.5" font-family="Helvetica,sans-Serif" font-size="10.00">Complex&lt; T &gt;</text>
</g>
<!-- Node2 -->
<g id="node2" class="node"><title>Node2</title>
<g id="a_node2"><a xlink:href="classMath_1_1Conjugate_3_01Complex_3_01T_01_4_01_4.html" target="_top" xlink:title="Conjugation functionality for the Complex class template. ">
<polygon fill="none" stroke="black" points="-0.5,-57 -0.5,-87 108.5,-87 108.5,-57 -0.5,-57"/>
<text text-anchor="start" x="7.5" y="-75" font-family="Helvetica,sans-Serif" font-size="10.00">Conjugate&lt; Complex</text>
<text text-anchor="middle" x="54" y="-64" font-family="Helvetica,sans-Serif" font-size="10.00">&lt; T &gt; &gt;</text>
</a>
</g>
</g>
<!-- Node2&#45;&gt;Node1 -->
<g id="edge1" class="edge"><title>Node2&#45;&gt;Node1</title>
<path fill="none" stroke="#8b1a1a" d="M54,-46.5858C54,-37.0743 54,-26.7864 54,-19.7305"/>
<polygon fill="#8b1a1a" stroke="#8b1a1a" points="50.5001,-46.7808 54,-56.7808 57.5001,-46.7809 50.5001,-46.7808"/>
</g>
</g>
</svg>
