<?xml version="1.0" encoding="UTF-8" standalone="no"?>
<!DOCTYPE svg PUBLIC "-//W3C//DTD SVG 1.1//EN"
 "http://www.w3.org/Graphics/SVG/1.1/DTD/svg11.dtd">
<!-- Generated by graphviz version 2.36.0 (20140111.2315)
 -->
<!-- Title: EqualityComparable&lt; T, U &gt; Pages: 1 -->
<svg width="114pt" height="96pt"
 viewBox="0.00 0.00 114.00 96.00" xmlns="http://www.w3.org/2000/svg" xmlns:xlink="http://www.w3.org/1999/xlink">
<g id="graph0" class="graph" transform="scale(1 1) rotate(0) translate(4 92)">
<title>EqualityComparable&lt; T, U &gt;</title>
<!-- Node1 -->
<g id="node1" class="node"><title>Node1</title>
<polygon fill="#bfbfbf" stroke="black" points="1,-1 1,-31 105,-31 105,-1 1,-1"/>
<text text-anchor="start" x="9" y="-19" font-family="Helvetica,sans-Serif" font-size="10.00">EqualityComparable</text>
<text text-anchor="middle" x="53" y="-8" font-family="Helvetica,sans-Serif" font-size="10.00">&lt; T, U &gt;</text>
</g>
<!-- Node2 -->
<g id="node2" class="node"><title>Node2</title>
<g id="a_node2"><a xlink:href="classFloat_1_1Comparable.html" target="_top" xlink:title="A base class for bridging user classes with this floating point comparison framework. ">
<polygon fill="none" stroke="black" points="-0.5,-68.5 -0.5,-87.5 106.5,-87.5 106.5,-68.5 -0.5,-68.5"/>
<text text-anchor="middle" x="53" y="-75.5" font-family="Helvetica,sans-Serif" font-size="10.00">Comparable&lt; T, U &gt;</text>
</a>
</g>
</g>
<!-- Node2&#45;&gt;Node1 -->
<g id="edge1" class="edge"><title>Node2&#45;&gt;Node1</title>
<path fill="none" stroke="#8b1a1a" d="M53,-58.3707C53,-49.5849 53,-39.2721 53,-31.1408"/>
<polygon fill="#8b1a1a" stroke="#8b1a1a" points="49.5001,-58.4034 53,-68.4035 56.5001,-58.4035 49.5001,-58.4034"/>
</g>
</g>
</svg>
