<?xml version="1.0" encoding="UTF-8" standalone="no"?>
<!DOCTYPE svg PUBLIC "-//W3C//DTD SVG 1.1//EN"
 "http://www.w3.org/Graphics/SVG/1.1/DTD/svg11.dtd">
<!-- Generated by graphviz version 2.36.0 (20140111.2315)
 -->
<!-- Title: include Pages: 1 -->
<svg width="182pt" height="111pt"
 viewBox="0.00 0.00 182.00 111.00" xmlns="http://www.w3.org/2000/svg" xmlns:xlink="http://www.w3.org/1999/xlink">
<g id="graph0" class="graph" transform="scale(1 1) rotate(0) translate(4 107)">
<title>include</title>
<g id="clust1" class="cluster"><title>clusterdir_cac79645e92e1a0c1ec3c1f83f27ec94</title>
<g id="a_clust1"><a xlink:href="dir_cac79645e92e1a0c1ec3c1f83f27ec94.html" target="_top" xlink:title="Float">
<polygon fill="#ddddee" stroke="black" points="8,-8 8,-95 166,-95 166,-8 8,-8"/>
<text text-anchor="middle" x="87" y="-83" font-family="Helvetica,sans-Serif" font-size="10.00">Float</text>
</a>
</g>
</g>
<g id="clust2" class="cluster"><title>clusterdir_ba3af4624be39bcb2481a3082923a809</title>
<g id="a_clust2"><a xlink:href="dir_ba3af4624be39bcb2481a3082923a809.html" target="_top">
<polygon fill="#eeeeff" stroke="black" points="16,-16 16,-68 158,-68 158,-16 16,-16"/>
</a>
</g>
</g>
<!-- dir_ba3af4624be39bcb2481a3082923a809 -->
<g id="node1" class="node"><title>dir_ba3af4624be39bcb2481a3082923a809</title>
<text text-anchor="middle" x="123" y="-39.5" font-family="Helvetica,sans-Serif" font-size="10.00">include</text>
</g>
<!-- dir_078382bc4fdf44b1b21cc344e413e865 -->
<g id="node2" class="node"><title>dir_078382bc4fdf44b1b21cc344e413e865</title>
<g id="a_node2"><a xlink:href="dir_078382bc4fdf44b1b21cc344e413e865.html" target="_top" xlink:title="Float">
<polygon fill="white" stroke="black" points="78,-60 24,-60 24,-24 78,-24 78,-60"/>
<text text-anchor="middle" x="51" y="-39.5" font-family="Helvetica,sans-Serif" font-size="10.00">Float</text>
</a>
</g>
</g>
</g>
</svg>
