<?xml version="1.0" encoding="UTF-8" standalone="no"?>
<!DOCTYPE svg PUBLIC "-//W3C//DTD SVG 1.1//EN"
 "http://www.w3.org/Graphics/SVG/1.1/DTD/svg11.dtd">
<!-- Generated by graphviz version 2.36.0 (20140111.2315)
 -->
<!-- Title: AffineSubspace&lt; T, n, k &gt; Pages: 1 -->
<svg width="133pt" height="190pt"
 viewBox="0.00 0.00 133.00 190.00" xmlns="http://www.w3.org/2000/svg" xmlns:xlink="http://www.w3.org/1999/xlink">
<g id="graph0" class="graph" transform="scale(1 1) rotate(0) translate(4 186)">
<title>AffineSubspace&lt; T, n, k &gt;</title>
<!-- Node1 -->
<g id="node1" class="node"><title>Node1</title>
<polygon fill="#bfbfbf" stroke="black" points="0,-1 0,-31 104,-31 104,-1 0,-1"/>
<text text-anchor="start" x="8" y="-19" font-family="Helvetica,sans-Serif" font-size="10.00">AffineSubspace&lt; T,</text>
<text text-anchor="middle" x="52" y="-8" font-family="Helvetica,sans-Serif" font-size="10.00"> n, k &gt;</text>
</g>
<!-- Node2 -->
<g id="node2" class="node"><title>Node2</title>
<g id="a_node2"><a xlink:href="classGeometry_1_1LinearSubspace.html" target="_top" xlink:title="LinearSubspace\&lt; T,\l n+1, k+1 \&gt;">
<polygon fill="none" stroke="black" points="0,-71 0,-101 104,-101 104,-71 0,-71"/>
<text text-anchor="start" x="8" y="-89" font-family="Helvetica,sans-Serif" font-size="10.00">LinearSubspace&lt; T,</text>
<text text-anchor="middle" x="52" y="-78" font-family="Helvetica,sans-Serif" font-size="10.00"> n+1, k+1 &gt;</text>
</a>
</g>
</g>
<!-- Node2&#45;&gt;Node1 -->
<g id="edge1" class="edge"><title>Node2&#45;&gt;Node1</title>
<path fill="none" stroke="darkgreen" d="M52,-60.7688C52,-50.8141 52,-39.6384 52,-31.0716"/>
<polygon fill="darkgreen" stroke="darkgreen" points="48.5001,-60.9103 52,-70.9104 55.5001,-60.9104 48.5001,-60.9103"/>
</g>
<!-- Node3 -->
<g id="node3" class="node"><title>Node3</title>
<g id="a_node3"><a xlink:href="classGeometry_1_1LinearSubspace.html" target="_top" xlink:title="A k&#45;dimensional linear subspace of an n&#45;dimensional vector space. ">
<polygon fill="none" stroke="black" points="0,-151 0,-181 104,-181 104,-151 0,-151"/>
<text text-anchor="start" x="8" y="-169" font-family="Helvetica,sans-Serif" font-size="10.00">LinearSubspace&lt; T,</text>
<text text-anchor="middle" x="52" y="-158" font-family="Helvetica,sans-Serif" font-size="10.00"> n, k &gt;</text>
</a>
</g>
</g>
<!-- Node3&#45;&gt;Node2 -->
<g id="edge2" class="edge"><title>Node3&#45;&gt;Node2</title>
<path fill="none" stroke="orange" stroke-dasharray="5,2" d="M52,-140.564C52,-127.624 52,-112.186 52,-101.216"/>
<polygon fill="orange" stroke="orange" points="48.5001,-140.694 52,-150.694 55.5001,-140.694 48.5001,-140.694"/>
<text text-anchor="middle" x="88.5" y="-123.5" font-family="Helvetica,sans-Serif" font-size="10.00"> &lt; T, n+1, k+1 &gt;</text>
</g>
</g>
</svg>
