<?xml version="1.0" encoding="UTF-8" standalone="no"?>
<!DOCTYPE svg PUBLIC "-//W3C//DTD SVG 1.1//EN"
 "http://www.w3.org/Graphics/SVG/1.1/DTD/svg11.dtd">
<!-- Generated by graphviz version 2.36.0 (20140111.2315)
 -->
<!-- Title: Zonotope.h Pages: 1 -->
<svg width="881pt" height="476pt"
 viewBox="0.00 0.00 881.00 476.00" xmlns="http://www.w3.org/2000/svg" xmlns:xlink="http://www.w3.org/1999/xlink">
<g id="graph0" class="graph" transform="scale(1 1) rotate(0) translate(4 472)">
<title>Zonotope.h</title>
<!-- Node1 -->
<g id="node1" class="node"><title>Node1</title>
<polygon fill="#bfbfbf" stroke="black" points="441.5,-448.5 441.5,-467.5 506.5,-467.5 506.5,-448.5 441.5,-448.5"/>
<text text-anchor="middle" x="474" y="-455.5" font-family="Helvetica,sans-Serif" font-size="10.00">Zonotope.h</text>
</g>
<!-- Node2 -->
<g id="node2" class="node"><title>Node2</title>
<g id="a_node2"><a xlink:href="Convex_8h.html" target="_top" xlink:title="Geometry/Convex.h">
<polygon fill="none" stroke="black" points="42,-280.5 42,-299.5 146,-299.5 146,-280.5 42,-280.5"/>
<text text-anchor="middle" x="94" y="-287.5" font-family="Helvetica,sans-Serif" font-size="10.00">Geometry/Convex.h</text>
</a>
</g>
</g>
<!-- Node1&#45;&gt;Node2 -->
<g id="edge1" class="edge"><title>Node1&#45;&gt;Node2</title>
<path fill="none" stroke="midnightblue" d="M441.46,-455.97C370.611,-453.158 205.123,-443.33 160,-412 124.413,-387.291 106.15,-337.009 98.5076,-309.686"/>
<polygon fill="midnightblue" stroke="midnightblue" points="101.847,-308.62 95.9358,-299.827 95.0733,-310.387 101.847,-308.62"/>
</g>
<!-- Node3 -->
<g id="node3" class="node"><title>Node3</title>
<g id="a_node3"><a xlink:href="Vector_8h.html" target="_top" xlink:title="Geometry/Vector.h">
<polygon fill="none" stroke="black" points="221.5,-168.5 221.5,-187.5 320.5,-187.5 320.5,-168.5 221.5,-168.5"/>
<text text-anchor="middle" x="271" y="-175.5" font-family="Helvetica,sans-Serif" font-size="10.00">Geometry/Vector.h</text>
</a>
</g>
</g>
<!-- Node1&#45;&gt;Node3 -->
<g id="edge42" class="edge"><title>Node1&#45;&gt;Node3</title>
<path fill="none" stroke="midnightblue" d="M441.087,-456.993C379.166,-454.942 246.745,-440.391 193,-356 157.746,-300.644 221.78,-226.649 254.05,-194.737"/>
<polygon fill="midnightblue" stroke="midnightblue" points="256.718,-197.027 261.49,-187.567 251.861,-191.986 256.718,-197.027"/>
</g>
<!-- Node11 -->
<g id="node11" class="node"><title>Node11</title>
<g id="a_node11"><a doxygen="/home/tom/workspace/Debug/TagFloat:../Float/" xlink:href="../Float/Compare_8h.html" target="_top" xlink:title="Float/Compare.h">
<polygon fill="none" stroke="black" points="774.5,-112.5 774.5,-131.5 863.5,-131.5 863.5,-112.5 774.5,-112.5"/>
<text text-anchor="middle" x="819" y="-119.5" font-family="Helvetica,sans-Serif" font-size="10.00">Float/Compare.h</text>
</a>
</g>
</g>
<!-- Node1&#45;&gt;Node11 -->
<g id="edge43" class="edge"><title>Node1&#45;&gt;Node11</title>
<path fill="none" stroke="midnightblue" d="M506.551,-451.299C580.148,-437.485 753,-399.457 753,-347 753,-347 753,-347 753,-233 753,-194.857 782.54,-158.517 802.094,-138.64"/>
<polygon fill="midnightblue" stroke="midnightblue" points="804.561,-141.123 809.261,-131.628 799.666,-136.119 804.561,-141.123"/>
</g>
<!-- Node19 -->
<g id="node19" class="node"><title>Node19</title>
<g id="a_node19"><a xlink:href="Soup_8h.html" target="_top" xlink:title="Geometry/Soup.h">
<polygon fill="none" stroke="black" points="365.5,-392.5 365.5,-411.5 458.5,-411.5 458.5,-392.5 365.5,-392.5"/>
<text text-anchor="middle" x="412" y="-399.5" font-family="Helvetica,sans-Serif" font-size="10.00">Geometry/Soup.h</text>
</a>
</g>
</g>
<!-- Node1&#45;&gt;Node19 -->
<g id="edge26" class="edge"><title>Node1&#45;&gt;Node19</title>
<path fill="none" stroke="midnightblue" d="M464.039,-448.324C454.873,-440.341 441.063,-428.313 429.972,-418.653"/>
<polygon fill="midnightblue" stroke="midnightblue" points="431.982,-415.762 422.143,-411.834 427.385,-421.041 431.982,-415.762"/>
</g>
<!-- Node24 -->
<g id="node24" class="node"><title>Node24</title>
<polygon fill="none" stroke="#bfbfbf" points="202.5,-336.5 202.5,-355.5 275.5,-355.5 275.5,-336.5 202.5,-336.5"/>
<text text-anchor="middle" x="239" y="-343.5" font-family="Helvetica,sans-Serif" font-size="10.00">initializer_list</text>
</g>
<!-- Node1&#45;&gt;Node24 -->
<g id="edge45" class="edge"><title>Node1&#45;&gt;Node24</title>
<path fill="none" stroke="midnightblue" d="M448.245,-448.373C424.043,-439.988 387.008,-426.436 356,-412 322.303,-396.312 285.036,-374.851 261.817,-360.957"/>
<polygon fill="midnightblue" stroke="midnightblue" points="263.437,-357.846 253.066,-355.679 259.822,-363.841 263.437,-357.846"/>
</g>
<!-- Node25 -->
<g id="node25" class="node"><title>Node25</title>
<polygon fill="none" stroke="#bfbfbf" points="602,-336.5 602,-355.5 646,-355.5 646,-336.5 602,-336.5"/>
<text text-anchor="middle" x="624" y="-343.5" font-family="Helvetica,sans-Serif" font-size="10.00">vector</text>
</g>
<!-- Node1&#45;&gt;Node25 -->
<g id="edge46" class="edge"><title>Node1&#45;&gt;Node25</title>
<path fill="none" stroke="midnightblue" d="M506.729,-453.948C536.05,-449.507 578.282,-438.627 604,-412 615.909,-399.67 620.743,-380.419 622.696,-366.063"/>
<polygon fill="midnightblue" stroke="midnightblue" points="626.207,-366.124 623.725,-355.824 619.243,-365.424 626.207,-366.124"/>
</g>
<!-- Node26 -->
<g id="node26" class="node"><title>Node26</title>
<g id="a_node26"><a xlink:href="Triangulate_8h.html" target="_top" xlink:title="Geometry/Triangulate.h">
<polygon fill="none" stroke="black" points="476.5,-392.5 476.5,-411.5 595.5,-411.5 595.5,-392.5 476.5,-392.5"/>
<text text-anchor="middle" x="536" y="-399.5" font-family="Helvetica,sans-Serif" font-size="10.00">Geometry/Triangulate.h</text>
</a>
</g>
</g>
<!-- Node1&#45;&gt;Node26 -->
<g id="edge39" class="edge"><title>Node1&#45;&gt;Node26</title>
<path fill="none" stroke="midnightblue" d="M483.961,-448.324C493.127,-440.341 506.937,-428.313 518.028,-418.653"/>
<polygon fill="midnightblue" stroke="midnightblue" points="520.615,-421.041 525.857,-411.834 516.018,-415.762 520.615,-421.041"/>
</g>
<!-- Node27 -->
<g id="node27" class="node"><title>Node27</title>
<polygon fill="none" stroke="#bfbfbf" points="781,-392.5 781,-411.5 873,-411.5 873,-392.5 781,-392.5"/>
<text text-anchor="middle" x="827" y="-399.5" font-family="Helvetica,sans-Serif" font-size="10.00">boost/integer.hpp</text>
</g>
<!-- Node1&#45;&gt;Node27 -->
<g id="edge44" class="edge"><title>Node1&#45;&gt;Node27</title>
<path fill="none" stroke="midnightblue" d="M506.577,-452.017C566.728,-442.815 695.887,-423.057 770.554,-411.635"/>
<polygon fill="midnightblue" stroke="midnightblue" points="771.36,-415.052 780.715,-410.08 770.301,-408.133 771.36,-415.052"/>
</g>
<!-- Node2&#45;&gt;Node3 -->
<g id="edge2" class="edge"><title>Node2&#45;&gt;Node3</title>
<path fill="none" stroke="midnightblue" d="M107.889,-280.368C138.391,-261.412 211.463,-216.001 248.565,-192.942"/>
<polygon fill="midnightblue" stroke="midnightblue" points="250.53,-195.843 257.176,-187.591 246.835,-189.897 250.53,-195.843"/>
</g>
<!-- Node9 -->
<g id="node9" class="node"><title>Node9</title>
<g id="a_node9"><a xlink:href="Point_8h.html" target="_top" xlink:title="Geometry/Point.h">
<polygon fill="none" stroke="black" points="451.5,-224.5 451.5,-243.5 544.5,-243.5 544.5,-224.5 451.5,-224.5"/>
<text text-anchor="middle" x="498" y="-231.5" font-family="Helvetica,sans-Serif" font-size="10.00">Geometry/Point.h</text>
</a>
</g>
</g>
<!-- Node2&#45;&gt;Node9 -->
<g id="edge8" class="edge"><title>Node2&#45;&gt;Node9</title>
<path fill="none" stroke="midnightblue" d="M146.246,-282.752C212.386,-274.73 330.095,-260.077 441.223,-244.074"/>
<polygon fill="midnightblue" stroke="midnightblue" points="441.87,-247.517 451.266,-242.621 440.867,-240.589 441.87,-247.517"/>
</g>
<!-- Node17 -->
<g id="node17" class="node"><title>Node17</title>
<g id="a_node17"><a doxygen="/home/tom/workspace/Debug/TagVisit:../Visit/" xlink:href="../Visit/ConstVisitor_8h.html" target="_top" xlink:title="Visit/ConstVisitor.h">
<polygon fill="none" stroke="black" points="25.5,-224.5 25.5,-243.5 126.5,-243.5 126.5,-224.5 25.5,-224.5"/>
<text text-anchor="middle" x="76" y="-231.5" font-family="Helvetica,sans-Serif" font-size="10.00">Visit/ConstVisitor.h</text>
</a>
</g>
</g>
<!-- Node2&#45;&gt;Node17 -->
<g id="edge23" class="edge"><title>Node2&#45;&gt;Node17</title>
<path fill="none" stroke="midnightblue" d="M91.0277,-280.083C88.6162,-272.849 85.1362,-262.409 82.1323,-253.397"/>
<polygon fill="midnightblue" stroke="midnightblue" points="85.3998,-252.131 78.917,-243.751 78.759,-254.345 85.3998,-252.131"/>
</g>
<!-- Node18 -->
<g id="node18" class="node"><title>Node18</title>
<g id="a_node18"><a doxygen="/home/tom/workspace/Debug/TagVisit:../Visit/" xlink:href="../Visit/Visitor_8h.html" target="_top" xlink:title="Visit/Visitor.h">
<polygon fill="none" stroke="black" points="-0.5,-168.5 -0.5,-187.5 74.5,-187.5 74.5,-168.5 -0.5,-168.5"/>
<text text-anchor="middle" x="37" y="-175.5" font-family="Helvetica,sans-Serif" font-size="10.00">Visit/Visitor.h</text>
</a>
</g>
</g>
<!-- Node2&#45;&gt;Node18 -->
<g id="edge25" class="edge"><title>Node2&#45;&gt;Node18</title>
<path fill="none" stroke="midnightblue" d="M64.8789,-280.441C47.3573,-273.62 26.4775,-262.141 16,-244 7.32566,-228.981 15.4162,-209.908 23.9475,-196.315"/>
<polygon fill="midnightblue" stroke="midnightblue" points="26.9517,-198.123 29.7236,-187.897 21.1798,-194.163 26.9517,-198.123"/>
</g>
<!-- Node4 -->
<g id="node4" class="node"><title>Node4</title>
<g id="a_node4"><a doxygen="/home/tom/workspace/Debug/TagMath:../Math/" xlink:href="../Math/Vector_8h.html" target="_top" xlink:title="Math/Vector.h">
<polygon fill="none" stroke="black" points="238,-112.5 238,-131.5 316,-131.5 316,-112.5 238,-112.5"/>
<text text-anchor="middle" x="277" y="-119.5" font-family="Helvetica,sans-Serif" font-size="10.00">Math/Vector.h</text>
</a>
</g>
</g>
<!-- Node3&#45;&gt;Node4 -->
<g id="edge3" class="edge"><title>Node3&#45;&gt;Node4</title>
<path fill="none" stroke="midnightblue" d="M271.991,-168.083C272.786,-160.927 273.929,-150.635 274.923,-141.691"/>
<polygon fill="midnightblue" stroke="midnightblue" points="278.402,-142.076 276.028,-131.751 271.445,-141.303 278.402,-142.076"/>
</g>
<!-- Node5 -->
<g id="node5" class="node"><title>Node5</title>
<g id="a_node5"><a xlink:href="Predicates_8h.html" target="_top" xlink:title="Math/Predicates.h">
<polygon fill="none" stroke="black" points="371,-56.5 371,-75.5 467,-75.5 467,-56.5 371,-56.5"/>
<text text-anchor="middle" x="419" y="-63.5" font-family="Helvetica,sans-Serif" font-size="10.00">Math/Predicates.h</text>
</a>
</g>
</g>
<!-- Node4&#45;&gt;Node5 -->
<g id="edge4" class="edge"><title>Node4&#45;&gt;Node5</title>
<path fill="none" stroke="midnightblue" d="M299.5,-112.444C323.077,-103.478 360.322,-89.314 386.964,-79.1827"/>
<polygon fill="midnightblue" stroke="midnightblue" points="388.502,-82.3424 396.605,-75.5164 386.014,-75.7995 388.502,-82.3424"/>
</g>
<!-- Node7 -->
<g id="node7" class="node"><title>Node7</title>
<g id="a_node7"><a doxygen="/home/tom/workspace/Debug/TagMath:../Math/" xlink:href="../Math/Field_8h.html" target="_top" xlink:title="Math/Field.h">
<polygon fill="none" stroke="black" points="241.5,-56.5 241.5,-75.5 312.5,-75.5 312.5,-56.5 241.5,-56.5"/>
<text text-anchor="middle" x="277" y="-63.5" font-family="Helvetica,sans-Serif" font-size="10.00">Math/Field.h</text>
</a>
</g>
</g>
<!-- Node4&#45;&gt;Node7 -->
<g id="edge6" class="edge"><title>Node4&#45;&gt;Node7</title>
<path fill="none" stroke="midnightblue" d="M277,-112.083C277,-105.006 277,-94.8611 277,-85.9865"/>
<polygon fill="midnightblue" stroke="midnightblue" points="280.5,-85.751 277,-75.7511 273.5,-85.7511 280.5,-85.751"/>
</g>
<!-- Node6 -->
<g id="node6" class="node"><title>Node6</title>
<polygon fill="none" stroke="#bfbfbf" points="371,-0.5 371,-19.5 467,-19.5 467,-0.5 371,-0.5"/>
<text text-anchor="middle" x="419" y="-7.5" font-family="Helvetica,sans-Serif" font-size="10.00">Math/Predicates.h</text>
</g>
<!-- Node5&#45;&gt;Node6 -->
<g id="edge5" class="edge"><title>Node5&#45;&gt;Node6</title>
<path fill="none" stroke="midnightblue" d="M419,-56.083C419,-49.0059 419,-38.8611 419,-29.9865"/>
<polygon fill="midnightblue" stroke="midnightblue" points="422.5,-29.751 419,-19.7511 415.5,-29.7511 422.5,-29.751"/>
</g>
<!-- Node8 -->
<g id="node8" class="node"><title>Node8</title>
<g id="a_node8"><a doxygen="/home/tom/workspace/Debug/TagMath:../Math/" xlink:href="../Math/Ring_8h.html" target="_top" xlink:title="Math/Ring.h">
<polygon fill="none" stroke="black" points="242,-0.5 242,-19.5 312,-19.5 312,-0.5 242,-0.5"/>
<text text-anchor="middle" x="277" y="-7.5" font-family="Helvetica,sans-Serif" font-size="10.00">Math/Ring.h</text>
</a>
</g>
</g>
<!-- Node7&#45;&gt;Node8 -->
<g id="edge7" class="edge"><title>Node7&#45;&gt;Node8</title>
<path fill="none" stroke="midnightblue" d="M277,-56.083C277,-49.0059 277,-38.8611 277,-29.9865"/>
<polygon fill="midnightblue" stroke="midnightblue" points="280.5,-29.751 277,-19.7511 273.5,-29.7511 280.5,-29.751"/>
</g>
<!-- Node9&#45;&gt;Node3 -->
<g id="edge17" class="edge"><title>Node9&#45;&gt;Node3</title>
<path fill="none" stroke="midnightblue" d="M462.031,-224.444C422.681,-215.083 359.513,-200.056 316.686,-189.868"/>
<polygon fill="midnightblue" stroke="midnightblue" points="317.339,-186.426 306.801,-187.516 315.719,-193.236 317.339,-186.426"/>
</g>
<!-- Node9&#45;&gt;Node5 -->
<g id="edge9" class="edge"><title>Node9&#45;&gt;Node5</title>
<path fill="none" stroke="midnightblue" d="M491.923,-224.482C480.1,-207.578 453.78,-168.284 438,-132 431.406,-116.838 426.324,-98.7202 423.081,-85.4686"/>
<polygon fill="midnightblue" stroke="midnightblue" points="426.473,-84.6004 420.798,-75.6536 419.655,-86.1866 426.473,-84.6004"/>
</g>
<!-- Node9&#45;&gt;Node7 -->
<g id="edge19" class="edge"><title>Node9&#45;&gt;Node7</title>
<path fill="none" stroke="midnightblue" d="M451.239,-225.323C424.497,-218.992 391.672,-207.72 368,-188 338.182,-163.16 348.986,-142.509 325,-112 316.482,-101.165 305.331,-90.5475 295.92,-82.349"/>
<polygon fill="midnightblue" stroke="midnightblue" points="298.103,-79.6112 288.209,-75.8223 293.581,-84.9543 298.103,-79.6112"/>
</g>
<!-- Node10 -->
<g id="node10" class="node"><title>Node10</title>
<g id="a_node10"><a xlink:href="ProjectivePoint_8h.html" target="_top" xlink:title="Geometry/ProjectivePoint.h">
<polygon fill="none" stroke="black" points="511.5,-168.5 511.5,-187.5 648.5,-187.5 648.5,-168.5 511.5,-168.5"/>
<text text-anchor="middle" x="580" y="-175.5" font-family="Helvetica,sans-Serif" font-size="10.00">Geometry/ProjectivePoint.h</text>
</a>
</g>
</g>
<!-- Node9&#45;&gt;Node10 -->
<g id="edge10" class="edge"><title>Node9&#45;&gt;Node10</title>
<path fill="none" stroke="midnightblue" d="M511.175,-224.324C523.847,-215.979 543.233,-203.212 558.206,-193.352"/>
<polygon fill="midnightblue" stroke="midnightblue" points="560.431,-196.078 566.858,-187.655 556.581,-190.231 560.431,-196.078"/>
</g>
<!-- Node9&#45;&gt;Node11 -->
<g id="edge18" class="edge"><title>Node9&#45;&gt;Node11</title>
<path fill="none" stroke="midnightblue" d="M543.482,-224.446C580.963,-216.775 635.207,-204.233 681,-188 721.905,-173.5 766.989,-150.929 794.141,-136.561"/>
<polygon fill="midnightblue" stroke="midnightblue" points="796.122,-139.47 803.291,-131.669 792.822,-133.297 796.122,-139.47"/>
</g>
<!-- Node14 -->
<g id="node14" class="node"><title>Node14</title>
<polygon fill="none" stroke="#bfbfbf" points="653.5,-112.5 653.5,-131.5 756.5,-131.5 756.5,-112.5 653.5,-112.5"/>
<text text-anchor="middle" x="705" y="-119.5" font-family="Helvetica,sans-Serif" font-size="10.00">boost/operators.hpp</text>
</g>
<!-- Node9&#45;&gt;Node14 -->
<g id="edge20" class="edge"><title>Node9&#45;&gt;Node14</title>
<path fill="none" stroke="midnightblue" d="M544.579,-227.966C578.243,-222.489 623.499,-211.179 657,-188 674.434,-175.938 688.012,-155.465 696.211,-140.715"/>
<polygon fill="midnightblue" stroke="midnightblue" points="699.452,-142.072 701.009,-131.592 693.256,-138.813 699.452,-142.072"/>
</g>
<!-- Node15 -->
<g id="node15" class="node"><title>Node15</title>
<polygon fill="none" stroke="#bfbfbf" points="447.5,-112.5 447.5,-131.5 492.5,-131.5 492.5,-112.5 447.5,-112.5"/>
<text text-anchor="middle" x="470" y="-119.5" font-family="Helvetica,sans-Serif" font-size="10.00">iosfwd</text>
</g>
<!-- Node9&#45;&gt;Node15 -->
<g id="edge21" class="edge"><title>Node9&#45;&gt;Node15</title>
<path fill="none" stroke="midnightblue" d="M495.803,-224.368C491.284,-206.617 480.861,-165.666 474.734,-141.597"/>
<polygon fill="midnightblue" stroke="midnightblue" points="478.046,-140.419 472.187,-131.591 471.262,-142.146 478.046,-140.419"/>
</g>
<!-- Node16 -->
<g id="node16" class="node"><title>Node16</title>
<polygon fill="none" stroke="#bfbfbf" points="377,-168.5 377,-187.5 417,-187.5 417,-168.5 377,-168.5"/>
<text text-anchor="middle" x="397" y="-175.5" font-family="Helvetica,sans-Serif" font-size="10.00">utility</text>
</g>
<!-- Node9&#45;&gt;Node16 -->
<g id="edge22" class="edge"><title>Node9&#45;&gt;Node16</title>
<path fill="none" stroke="midnightblue" d="M481.773,-224.324C465.649,-215.703 440.7,-202.364 422.036,-192.386"/>
<polygon fill="midnightblue" stroke="midnightblue" points="423.656,-189.283 413.187,-187.655 420.356,-195.456 423.656,-189.283"/>
</g>
<!-- Node10&#45;&gt;Node5 -->
<g id="edge11" class="edge"><title>Node10&#45;&gt;Node5</title>
<path fill="none" stroke="midnightblue" d="M570.723,-168.389C556.403,-155.331 527.766,-130.124 501,-112 483.353,-100.051 462.248,-88.5264 445.869,-80.1317"/>
<polygon fill="midnightblue" stroke="midnightblue" points="447.338,-76.9525 436.833,-75.5712 444.184,-83.2016 447.338,-76.9525"/>
</g>
<!-- Node10&#45;&gt;Node11 -->
<g id="edge12" class="edge"><title>Node10&#45;&gt;Node11</title>
<path fill="none" stroke="midnightblue" d="M617.87,-168.444C659.476,-159.043 726.369,-143.929 771.469,-133.739"/>
<polygon fill="midnightblue" stroke="midnightblue" points="772.324,-137.134 781.307,-131.516 770.781,-130.306 772.324,-137.134"/>
</g>
<!-- Node13 -->
<g id="node13" class="node"><title>Node13</title>
<polygon fill="none" stroke="#bfbfbf" points="549,-112.5 549,-131.5 635,-131.5 635,-112.5 549,-112.5"/>
<text text-anchor="middle" x="592" y="-119.5" font-family="Helvetica,sans-Serif" font-size="10.00">Memory/Array.h</text>
</g>
<!-- Node10&#45;&gt;Node13 -->
<g id="edge14" class="edge"><title>Node10&#45;&gt;Node13</title>
<path fill="none" stroke="midnightblue" d="M581.982,-168.083C583.572,-160.927 585.859,-150.635 587.846,-141.691"/>
<polygon fill="midnightblue" stroke="midnightblue" points="591.303,-142.272 590.055,-131.751 584.469,-140.754 591.303,-142.272"/>
</g>
<!-- Node10&#45;&gt;Node14 -->
<g id="edge15" class="edge"><title>Node10&#45;&gt;Node14</title>
<path fill="none" stroke="midnightblue" d="M599.807,-168.444C620.287,-159.596 652.483,-145.687 675.865,-135.586"/>
<polygon fill="midnightblue" stroke="midnightblue" points="677.494,-138.695 685.286,-131.516 674.718,-132.269 677.494,-138.695"/>
</g>
<!-- Node10&#45;&gt;Node15 -->
<g id="edge16" class="edge"><title>Node10&#45;&gt;Node15</title>
<path fill="none" stroke="midnightblue" d="M562.327,-168.324C544.606,-159.625 517.097,-146.12 496.712,-136.113"/>
<polygon fill="midnightblue" stroke="midnightblue" points="498.149,-132.919 487.63,-131.655 495.064,-139.203 498.149,-132.919"/>
</g>
<!-- Node12 -->
<g id="node12" class="node"><title>Node12</title>
<g id="a_node12"><a doxygen="/home/tom/workspace/Debug/TagFloat:../Float/" xlink:href="../Float/Float_8h.html" target="_top" xlink:title="Float/Float.h">
<polygon fill="none" stroke="black" points="783.5,-56.5 783.5,-75.5 854.5,-75.5 854.5,-56.5 783.5,-56.5"/>
<text text-anchor="middle" x="819" y="-63.5" font-family="Helvetica,sans-Serif" font-size="10.00">Float/Float.h</text>
</a>
</g>
</g>
<!-- Node11&#45;&gt;Node12 -->
<g id="edge13" class="edge"><title>Node11&#45;&gt;Node12</title>
<path fill="none" stroke="midnightblue" d="M819,-112.083C819,-105.006 819,-94.8611 819,-85.9865"/>
<polygon fill="midnightblue" stroke="midnightblue" points="822.5,-85.751 819,-75.7511 815.5,-85.7511 822.5,-85.751"/>
</g>
<!-- Node17&#45;&gt;Node18 -->
<g id="edge24" class="edge"><title>Node17&#45;&gt;Node18</title>
<path fill="none" stroke="midnightblue" d="M69.5599,-224.083C64.0511,-216.455 55.9688,-205.264 49.235,-195.941"/>
<polygon fill="midnightblue" stroke="midnightblue" points="52.0126,-193.809 43.3202,-187.751 46.3378,-197.907 52.0126,-193.809"/>
</g>
<!-- Node19&#45;&gt;Node9 -->
<g id="edge31" class="edge"><title>Node19&#45;&gt;Node9</title>
<path fill="none" stroke="midnightblue" d="M416.624,-392.075C430.278,-365.719 470.605,-287.878 488.85,-252.661"/>
<polygon fill="midnightblue" stroke="midnightblue" points="492.069,-254.057 493.561,-243.568 485.853,-250.837 492.069,-254.057"/>
</g>
<!-- Node20 -->
<g id="node20" class="node"><title>Node20</title>
<g id="a_node20"><a xlink:href="HyperSphere_8h.html" target="_top" xlink:title="Geometry/HyperSphere.h">
<polygon fill="none" stroke="black" points="294,-336.5 294,-355.5 422,-355.5 422,-336.5 294,-336.5"/>
<text text-anchor="middle" x="358" y="-343.5" font-family="Helvetica,sans-Serif" font-size="10.00">Geometry/HyperSphere.h</text>
</a>
</g>
</g>
<!-- Node19&#45;&gt;Node20 -->
<g id="edge27" class="edge"><title>Node19&#45;&gt;Node20</title>
<path fill="none" stroke="midnightblue" d="M403.083,-392.083C395.22,-384.22 383.569,-372.569 374.081,-363.081"/>
<polygon fill="midnightblue" stroke="midnightblue" points="376.297,-360.347 366.751,-355.751 371.347,-365.297 376.297,-360.347"/>
</g>
<!-- Node21 -->
<g id="node21" class="node"><title>Node21</title>
<g id="a_node21"><a xlink:href="Triangle_8h.html" target="_top" xlink:title="Geometry/Triangle.h">
<polygon fill="none" stroke="black" points="478.5,-336.5 478.5,-355.5 583.5,-355.5 583.5,-336.5 478.5,-336.5"/>
<text text-anchor="middle" x="531" y="-343.5" font-family="Helvetica,sans-Serif" font-size="10.00">Geometry/Triangle.h</text>
</a>
</g>
</g>
<!-- Node19&#45;&gt;Node21 -->
<g id="edge32" class="edge"><title>Node19&#45;&gt;Node21</title>
<path fill="none" stroke="midnightblue" d="M430.856,-392.444C450.266,-383.636 480.73,-369.812 502.965,-359.722"/>
<polygon fill="midnightblue" stroke="midnightblue" points="504.572,-362.836 512.232,-355.516 501.68,-356.462 504.572,-362.836"/>
</g>
<!-- Node19&#45;&gt;Node24 -->
<g id="edge37" class="edge"><title>Node19&#45;&gt;Node24</title>
<path fill="none" stroke="midnightblue" d="M384.588,-392.444C355.231,-383.28 308.481,-368.688 275.904,-358.519"/>
<polygon fill="midnightblue" stroke="midnightblue" points="276.873,-355.155 266.284,-355.516 274.787,-361.837 276.873,-355.155"/>
</g>
<!-- Node19&#45;&gt;Node25 -->
<g id="edge38" class="edge"><title>Node19&#45;&gt;Node25</title>
<path fill="none" stroke="midnightblue" d="M447.598,-392.425C483.967,-383.589 542.032,-369.27 592,-356 592.101,-355.973 592.202,-355.946 592.304,-355.919"/>
<polygon fill="midnightblue" stroke="midnightblue" points="593.26,-359.286 601.989,-353.282 591.421,-352.532 593.26,-359.286"/>
</g>
<!-- Node20&#45;&gt;Node2 -->
<g id="edge28" class="edge"><title>Node20&#45;&gt;Node2</title>
<path fill="none" stroke="midnightblue" d="M316.168,-336.444C269.921,-326.984 195.388,-311.738 145.564,-301.547"/>
<polygon fill="midnightblue" stroke="midnightblue" points="146.134,-298.091 135.636,-299.516 144.732,-304.949 146.134,-298.091"/>
</g>
<!-- Node20&#45;&gt;Node3 -->
<g id="edge29" class="edge"><title>Node20&#45;&gt;Node3</title>
<path fill="none" stroke="midnightblue" d="M350.493,-336.457C336.252,-319.819 305.2,-281.411 288,-244 281.148,-229.097 276.694,-210.953 274.071,-197.626"/>
<polygon fill="midnightblue" stroke="midnightblue" points="277.508,-196.96 272.286,-187.741 270.619,-198.204 277.508,-196.96"/>
</g>
<!-- Node20&#45;&gt;Node7 -->
<g id="edge30" class="edge"><title>Node20&#45;&gt;Node7</title>
<path fill="none" stroke="midnightblue" d="M344.685,-336.421C313.753,-315.557 237.719,-258.651 212,-188 203.245,-163.95 228.63,-112.595 229,-112 236.183,-100.445 247.073,-89.9011 256.665,-81.9286"/>
<polygon fill="midnightblue" stroke="midnightblue" points="258.964,-84.573 264.635,-75.6237 254.621,-79.0831 258.964,-84.573"/>
</g>
<!-- Node21&#45;&gt;Node9 -->
<g id="edge33" class="edge"><title>Node21&#45;&gt;Node9</title>
<path fill="none" stroke="midnightblue" d="M528.411,-336.368C523.061,-318.537 510.689,-277.295 503.482,-253.272"/>
<polygon fill="midnightblue" stroke="midnightblue" points="506.803,-252.164 500.577,-243.591 500.099,-254.175 506.803,-252.164"/>
</g>
<!-- Node22 -->
<g id="node22" class="node"><title>Node22</title>
<g id="a_node22"><a xlink:href="SurfaceNormal_8h.html" target="_top" xlink:title="Geometry/SurfaceNormal.h">
<polygon fill="none" stroke="black" points="297,-224.5 297,-243.5 433,-243.5 433,-224.5 297,-224.5"/>
<text text-anchor="middle" x="365" y="-231.5" font-family="Helvetica,sans-Serif" font-size="10.00">Geometry/SurfaceNormal.h</text>
</a>
</g>
</g>
<!-- Node21&#45;&gt;Node22 -->
<g id="edge34" class="edge"><title>Node21&#45;&gt;Node22</title>
<path fill="none" stroke="midnightblue" d="M517.974,-336.368C489.489,-317.492 421.417,-272.385 386.484,-249.237"/>
<polygon fill="midnightblue" stroke="midnightblue" points="388.235,-246.198 377.965,-243.591 384.368,-252.033 388.235,-246.198"/>
</g>
<!-- Node23 -->
<g id="node23" class="node"><title>Node23</title>
<polygon fill="none" stroke="#bfbfbf" points="554,-280.5 554,-299.5 592,-299.5 592,-280.5 554,-280.5"/>
<text text-anchor="middle" x="573" y="-287.5" font-family="Helvetica,sans-Serif" font-size="10.00">array</text>
</g>
<!-- Node21&#45;&gt;Node23 -->
<g id="edge36" class="edge"><title>Node21&#45;&gt;Node23</title>
<path fill="none" stroke="midnightblue" d="M537.935,-336.083C543.929,-328.377 552.752,-317.033 560.048,-307.653"/>
<polygon fill="midnightblue" stroke="midnightblue" points="562.817,-309.793 566.194,-299.751 557.291,-305.496 562.817,-309.793"/>
</g>
<!-- Node22&#45;&gt;Node3 -->
<g id="edge35" class="edge"><title>Node22&#45;&gt;Node3</title>
<path fill="none" stroke="midnightblue" d="M349.897,-224.324C335.097,-215.822 312.306,-202.729 295.018,-192.797"/>
<polygon fill="midnightblue" stroke="midnightblue" points="296.48,-189.601 286.065,-187.655 292.993,-195.671 296.48,-189.601"/>
</g>
<!-- Node26&#45;&gt;Node21 -->
<g id="edge40" class="edge"><title>Node26&#45;&gt;Node21</title>
<path fill="none" stroke="midnightblue" d="M535.174,-392.083C534.519,-385.006 533.58,-374.861 532.758,-365.986"/>
<polygon fill="midnightblue" stroke="midnightblue" points="536.217,-365.386 531.81,-355.751 529.247,-366.031 536.217,-365.386"/>
</g>
<!-- Node26&#45;&gt;Node25 -->
<g id="edge41" class="edge"><title>Node26&#45;&gt;Node25</title>
<path fill="none" stroke="midnightblue" d="M550.139,-392.324C563.866,-383.9 584.936,-370.971 601.064,-361.074"/>
<polygon fill="midnightblue" stroke="midnightblue" points="603.204,-363.868 609.896,-355.655 599.543,-357.902 603.204,-363.868"/>
</g>
</g>
</svg>
